2.1.0 :016 > a=Article.find(1)
  Article Load (0.6ms)  SELECT `articles`.* FROM `articles` WHERE `articles`.`id` = 1 LIMIT 1
 => #<Article id: 1, title: "Title 1", descriptions: "Content 1", created_at: "2014-02-13 16:55:06", updated_at: "2014-02-13 16:55:06", rating: nil, user_id: 1> 
2.1.0 :017 > a.comments
  Comment Load (0.6ms)  SELECT `comments`.* FROM `comments` WHERE `comments`.`article_id` = 1
 => #<ActiveRecord::Associations::CollectionProxy [#<Comment id: 1, content: "comment 1", created_at: "2014-02-13 16:55:07", updated_at: "2014-02-13 16:55:07", user_id: 2, article_id: 1>]> 
2.1.0 :018 > 
